<svg xmlns="http://www.w3.org/2000/svg" width="1920" height="87.343" viewBox="0 0 1636.364 87.343">
    <defs>
        <style>.a,.b{fill:none;stroke:#e3be20;}.a{stroke-width:3px;}.b{stroke-width:5px;}</style>
    </defs>
    <g transform="translate(-141.818 -1741.407)">
        <g transform="translate(488.181 1743.526)">
            <path class="a" d="M514.036,1338.4v-38.853h-.363l.26-.26-41.764-41.764-.43.428-.258-.258-41.588,41.59.265.265h-.369V1338.4H0v1.847H943.638V1338.4Zm-82.4-38.25,40.277-40.275,40.28,40.28V1338.4H431.634Z" transform="translate(0 -1257.519)"/>
        </g>
        <path class="b" d="M0,1814.25H1920" transform="translate(1.212 12)"/>
    </g>
</svg>
